…
**NOTE:** The function is made to work across different datasets
provided they have atleast one categorical and one numeric column and it
makes sense to use these columns for carrying out this function.

From the four examples shown below two work and two don’t and this was
done intentionally. The errors are further tested in Exercise 4 for
confirmation.

``` r
#Testing the function on the dataset I worked with before as part of my mini data analysis- Vancouver_trees. 
grouping_summarising(input = vancouver_trees, group = common_name, summary = diameter)
```

    ## # A tibble: 634 × 4
    ##    common_name               mean_diameter min_diameter max_diameter
    ##    <chr>                             <dbl>        <dbl>        <dbl>
    ##  1 ACCOLADE CHERRY                   20.8           3           42  
    ##  2 AKEBONO FLOWERING CHERRY           7.76          0           66  
    ##  3 ALDER SPECIES                     16.2           0           26.5
    ##  4 ALDERLEAFED MOUNTAIN ASH           4.67          2           19.8
    ##  5 ALIA'S MAGNOLIA                    5.33          5            5.5
    ##  6 ALLEGHENY SERVICEBERRY             2.92          1.5          5  
    ##  7 ALLGOLD EUROPEAN ASH               3.81          2           11.5
    ##  8 ALMIRA NORWAY MAPLE               17.4           5           29  
    ##  9 ALPINE FIR                         4             4            4  
    ## 10 AMANOGAWA JAPANESE CHERRY          8.52          3           26  
    ## # … with 624 more rows
…
